<?xml version="1.0" encoding="UTF-8" standalone="no"?>
<!DOCTYPE svg PUBLIC "-//W3C//DTD SVG 1.1//EN"
 "http://www.w3.org/Graphics/SVG/1.1/DTD/svg11.dtd">
<!-- Generated by graphviz version 2.40.1 (20161225.0304)
 -->
<!-- Title: %3 Pages: 1 -->
<svg width="1472pt" height="404pt"
 viewBox="0.00 0.00 1471.53 404.00" xmlns="http://www.w3.org/2000/svg" xmlns:xlink="http://www.w3.org/1999/xlink">
<g id="graph0" class="graph" transform="scale(1 1) rotate(0) translate(4 400)">
<title>%3</title>
<polygon fill="#ffffff" stroke="transparent" points="-4,4 -4,-400 1467.5311,-400 1467.5311,4 -4,4"/>
<!-- [root] aws_instance.test0 -->
<g id="node1" class="node">
<title>[root] aws_instance.test0</title>
<polygon fill="none" stroke="#000000" points="916.2405,-180 798.2405,-180 798.2405,-144 916.2405,-144 916.2405,-180"/>
<text text-anchor="middle" x="857.2405" y="-158.3" font-family="Times,serif" font-size="14.00" fill="#000000">aws_instance.test0</text>
</g>
<!-- [root] aws_security_group.instance -->
<g id="node3" class="node">
<title>[root] aws_security_group.instance</title>
<polygon fill="none" stroke="#000000" points="1011.7405,-108 838.7405,-108 838.7405,-72 1011.7405,-72 1011.7405,-108"/>
<text text-anchor="middle" x="925.2405" y="-86.3" font-family="Times,serif" font-size="14.00" fill="#000000">aws_security_group.instance</text>
</g>
<!-- [root] aws_instance.test0&#45;&gt;[root] aws_security_group.instance -->
<g id="edge1" class="edge">
<title>[root] aws_instance.test0&#45;&gt;[root] aws_security_group.instance</title>
<path fill="none" stroke="#000000" d="M874.3998,-143.8314C882.3916,-135.3694 892.0443,-125.1489 900.7821,-115.8971"/>
<polygon fill="#000000" stroke="#000000" points="903.5285,-118.0866 907.8502,-108.4133 898.4394,-113.2802 903.5285,-118.0866"/>
</g>
<!-- [root] aws_instance.test1 -->
<g id="node2" class="node">
<title>[root] aws_instance.test1</title>
<polygon fill="none" stroke="#000000" points="1074.2405,-180 956.2405,-180 956.2405,-144 1074.2405,-144 1074.2405,-180"/>
<text text-anchor="middle" x="1015.2405" y="-158.3" font-family="Times,serif" font-size="14.00" fill="#000000">aws_instance.test1</text>
</g>
<!-- [root] aws_instance.test1&#45;&gt;[root] aws_security_group.instance -->
<g id="edge2" class="edge">
<title>[root] aws_instance.test1&#45;&gt;[root] aws_security_group.instance</title>
<path fill="none" stroke="#000000" d="M992.5297,-143.8314C981.4445,-134.9632 967.9451,-124.1637 955.9553,-114.5718"/>
<polygon fill="#000000" stroke="#000000" points="957.9392,-111.6768 947.944,-108.1628 953.5663,-117.1429 957.9392,-111.6768"/>
</g>
<!-- [root] provider.aws -->
<g id="node4" class="node">
<title>[root] provider.aws</title>
<polygon fill="none" stroke="#000000" points="925.2405,-36 845.3071,-18 925.2405,0 1005.1739,-18 925.2405,-36"/>
<text text-anchor="middle" x="925.2405" y="-14.3" font-family="Times,serif" font-size="14.00" fill="#000000">provider.aws</text>
</g>
<!-- [root] aws_security_group.instance&#45;&gt;[root] provider.aws -->
<g id="edge3" class="edge">
<title>[root] aws_security_group.instance&#45;&gt;[root] provider.aws</title>
<path fill="none" stroke="#000000" d="M925.2405,-71.8314C925.2405,-64.131 925.2405,-54.9743 925.2405,-46.4166"/>
<polygon fill="#000000" stroke="#000000" points="928.7406,-46.4132 925.2405,-36.4133 921.7406,-46.4133 928.7406,-46.4132"/>
</g>
<!-- [root] meta.count&#45;boundary (count boundary fixup) -->
<g id="node5" class="node">
<title>[root] meta.count&#45;boundary (count boundary fixup)</title>
<ellipse fill="none" stroke="#000000" cx="756.2405" cy="-306" rx="193.0657" ry="18"/>
<text text-anchor="middle" x="756.2405" y="-302.3" font-family="Times,serif" font-size="14.00" fill="#000000">[root] meta.count&#45;boundary (count boundary fixup)</text>
</g>
<!-- [root] output.instance_ips -->
<g id="node6" class="node">
<title>[root] output.instance_ips</title>
<ellipse fill="none" stroke="#000000" cx="1133.2405" cy="-234" rx="101.2821" ry="18"/>
<text text-anchor="middle" x="1133.2405" y="-230.3" font-family="Times,serif" font-size="14.00" fill="#000000">[root] output.instance_ips</text>
</g>
<!-- [root] meta.count&#45;boundary (count boundary fixup)&#45;&gt;[root] output.instance_ips -->
<g id="edge4" class="edge">
<title>[root] meta.count&#45;boundary (count boundary fixup)&#45;&gt;[root] output.instance_ips</title>
<path fill="none" stroke="#000000" d="M841.3167,-289.752C904.987,-277.5922 991.4584,-261.0777 1053.7417,-249.1828"/>
<polygon fill="#000000" stroke="#000000" points="1054.7448,-252.5546 1063.9106,-247.2407 1053.4316,-245.6788 1054.7448,-252.5546"/>
</g>
<!-- [root] output.instance_state -->
<g id="node7" class="node">
<title>[root] output.instance_state</title>
<ellipse fill="none" stroke="#000000" cx="107.2405" cy="-234" rx="107.4815" ry="18"/>
<text text-anchor="middle" x="107.2405" y="-230.3" font-family="Times,serif" font-size="14.00" fill="#000000">[root] output.instance_state</text>
</g>
<!-- [root] meta.count&#45;boundary (count boundary fixup)&#45;&gt;[root] output.instance_state -->
<g id="edge5" class="edge">
<title>[root] meta.count&#45;boundary (count boundary fixup)&#45;&gt;[root] output.instance_state</title>
<path fill="none" stroke="#000000" d="M614.8899,-293.7349C507.3333,-283.9043 355.7402,-268.98 223.2405,-252 213.9386,-250.808 204.2328,-249.4629 194.5689,-248.0583"/>
<polygon fill="#000000" stroke="#000000" points="194.9358,-244.5746 184.5319,-246.5769 193.9136,-251.4996 194.9358,-244.5746"/>
</g>
<!-- [root] output.instance_type -->
<g id="node8" class="node">
<title>[root] output.instance_type</title>
<ellipse fill="none" stroke="#000000" cx="339.2405" cy="-234" rx="106.6812" ry="18"/>
<text text-anchor="middle" x="339.2405" y="-230.3" font-family="Times,serif" font-size="14.00" fill="#000000">[root] output.instance_type</text>
</g>
<!-- [root] meta.count&#45;boundary (count boundary fixup)&#45;&gt;[root] output.instance_type -->
<g id="edge6" class="edge">
<title>[root] meta.count&#45;boundary (count boundary fixup)&#45;&gt;[root] output.instance_type</title>
<path fill="none" stroke="#000000" d="M664.4701,-290.1547C592.8173,-277.783 494.0273,-260.7258 424.1793,-248.6657"/>
<polygon fill="#000000" stroke="#000000" points="424.5402,-245.1763 414.0905,-246.9237 423.3491,-252.0742 424.5402,-245.1763"/>
</g>
<!-- [root] output.key_name -->
<g id="node9" class="node">
<title>[root] output.key_name</title>
<ellipse fill="none" stroke="#000000" cx="558.2405" cy="-234" rx="94.7833" ry="18"/>
<text text-anchor="middle" x="558.2405" y="-230.3" font-family="Times,serif" font-size="14.00" fill="#000000">[root] output.key_name</text>
</g>
<!-- [root] meta.count&#45;boundary (count boundary fixup)&#45;&gt;[root] output.key_name -->
<g id="edge7" class="edge">
<title>[root] meta.count&#45;boundary (count boundary fixup)&#45;&gt;[root] output.key_name</title>
<path fill="none" stroke="#000000" d="M708.0574,-288.4789C678.9293,-277.8869 641.749,-264.3667 611.7149,-253.4453"/>
<polygon fill="#000000" stroke="#000000" points="612.8281,-250.1259 602.234,-249.9976 610.4358,-256.7044 612.8281,-250.1259"/>
</g>
<!-- [root] output.name -->
<g id="node10" class="node">
<title>[root] output.name</title>
<ellipse fill="none" stroke="#000000" cx="936.2405" cy="-234" rx="77.1866" ry="18"/>
<text text-anchor="middle" x="936.2405" y="-230.3" font-family="Times,serif" font-size="14.00" fill="#000000">[root] output.name</text>
</g>
<!-- [root] meta.count&#45;boundary (count boundary fixup)&#45;&gt;[root] output.name -->
<g id="edge8" class="edge">
<title>[root] meta.count&#45;boundary (count boundary fixup)&#45;&gt;[root] output.name</title>
<path fill="none" stroke="#000000" d="M800.2734,-288.3868C826.8076,-277.7731 860.6286,-264.2448 887.9009,-253.3359"/>
<polygon fill="#000000" stroke="#000000" points="889.2667,-256.5592 897.2516,-249.5956 886.6669,-250.0599 889.2667,-256.5592"/>
</g>
<!-- [root] output.tenancy -->
<g id="node11" class="node">
<title>[root] output.tenancy</title>
<ellipse fill="none" stroke="#000000" cx="756.2405" cy="-234" rx="85.2851" ry="18"/>
<text text-anchor="middle" x="756.2405" y="-230.3" font-family="Times,serif" font-size="14.00" fill="#000000">[root] output.tenancy</text>
</g>
<!-- [root] meta.count&#45;boundary (count boundary fixup)&#45;&gt;[root] output.tenancy -->
<g id="edge9" class="edge">
<title>[root] meta.count&#45;boundary (count boundary fixup)&#45;&gt;[root] output.tenancy</title>
<path fill="none" stroke="#000000" d="M756.2405,-287.8314C756.2405,-280.131 756.2405,-270.9743 756.2405,-262.4166"/>
<polygon fill="#000000" stroke="#000000" points="759.7406,-262.4132 756.2405,-252.4133 752.7406,-262.4133 759.7406,-262.4132"/>
</g>
<!-- [root] output.instance_ips&#45;&gt;[root] aws_instance.test0 -->
<g id="edge10" class="edge">
<title>[root] output.instance_ips&#45;&gt;[root] aws_instance.test0</title>
<path fill="none" stroke="#000000" d="M1076.0531,-219.0816C1032.5112,-207.7228 972.3966,-192.0407 926.1928,-179.9876"/>
<polygon fill="#000000" stroke="#000000" points="926.8186,-176.5337 916.2589,-177.3961 925.0516,-183.3071 926.8186,-176.5337"/>
</g>
<!-- [root] output.instance_ips&#45;&gt;[root] aws_instance.test1 -->
<g id="edge11" class="edge">
<title>[root] output.instance_ips&#45;&gt;[root] aws_instance.test1</title>
<path fill="none" stroke="#000000" d="M1104.676,-216.5708C1089.3676,-207.2301 1070.2947,-195.5924 1053.6994,-185.4664"/>
<polygon fill="#000000" stroke="#000000" points="1055.1337,-182.2415 1044.7742,-180.0206 1051.4876,-188.217 1055.1337,-182.2415"/>
</g>
<!-- [root] output.instance_state&#45;&gt;[root] aws_instance.test0 -->
<g id="edge12" class="edge">
<title>[root] output.instance_state&#45;&gt;[root] aws_instance.test0</title>
<path fill="none" stroke="#000000" d="M183.8859,-221.3428C196.9939,-219.3972 210.4926,-217.5301 223.2405,-216 427.9241,-191.4322 671.0999,-173.9872 787.8783,-166.3357"/>
<polygon fill="#000000" stroke="#000000" points="788.3505,-169.8125 798.1018,-165.6698 787.8954,-162.8273 788.3505,-169.8125"/>
</g>
<!-- [root] output.instance_type&#45;&gt;[root] aws_instance.test0 -->
<g id="edge13" class="edge">
<title>[root] output.instance_type&#45;&gt;[root] aws_instance.test0</title>
<path fill="none" stroke="#000000" d="M416.8393,-221.6153C429.3381,-219.6893 442.1414,-217.7573 454.2405,-216 571.3096,-198.9968 707.8035,-181.1144 788.1232,-170.7903"/>
<polygon fill="#000000" stroke="#000000" points="788.6419,-174.2525 798.1148,-169.5077 787.7506,-167.3095 788.6419,-174.2525"/>
</g>
<!-- [root] output.key_name&#45;&gt;[root] aws_instance.test0 -->
<g id="edge14" class="edge">
<title>[root] output.key_name&#45;&gt;[root] aws_instance.test0</title>
<path fill="none" stroke="#000000" d="M617.3133,-219.7751C666.4783,-207.936 736.5434,-191.0642 788.2725,-178.6077"/>
<polygon fill="#000000" stroke="#000000" points="789.1324,-182.0007 798.0351,-176.2568 787.4936,-175.1953 789.1324,-182.0007"/>
</g>
<!-- [root] output.name&#45;&gt;[root] aws_instance.test0 -->
<g id="edge15" class="edge">
<title>[root] output.name&#45;&gt;[root] aws_instance.test0</title>
<path fill="none" stroke="#000000" d="M916.7124,-216.2022C907.0058,-207.3557 895.1156,-196.5191 884.5249,-186.8668"/>
<polygon fill="#000000" stroke="#000000" points="886.8412,-184.2424 877.0927,-180.0931 882.126,-189.416 886.8412,-184.2424"/>
</g>
<!-- [root] output.name&#45;&gt;[root] aws_instance.test1 -->
<g id="edge16" class="edge">
<title>[root] output.name&#45;&gt;[root] aws_instance.test1</title>
<path fill="none" stroke="#000000" d="M955.7686,-216.2022C965.4752,-207.3557 977.3654,-196.5191 987.9561,-186.8668"/>
<polygon fill="#000000" stroke="#000000" points="990.355,-189.416 995.3883,-180.0931 985.6397,-184.2424 990.355,-189.416"/>
</g>
<!-- [root] output.tenancy&#45;&gt;[root] aws_instance.test0 -->
<g id="edge17" class="edge">
<title>[root] output.tenancy&#45;&gt;[root] aws_instance.test0</title>
<path fill="none" stroke="#000000" d="M780.6898,-216.5708C793.5501,-207.4031 809.5143,-196.0227 823.531,-186.0305"/>
<polygon fill="#000000" stroke="#000000" points="825.8505,-188.6754 831.9616,-180.0206 821.7871,-182.9754 825.8505,-188.6754"/>
</g>
<!-- [root] provider.aws (close) -->
<g id="node12" class="node">
<title>[root] provider.aws (close)</title>
<ellipse fill="none" stroke="#000000" cx="1358.2405" cy="-234" rx="105.0817" ry="18"/>
<text text-anchor="middle" x="1358.2405" y="-230.3" font-family="Times,serif" font-size="14.00" fill="#000000">[root] provider.aws (close)</text>
</g>
<!-- [root] provider.aws (close)&#45;&gt;[root] aws_instance.test0 -->
<g id="edge18" class="edge">
<title>[root] provider.aws (close)&#45;&gt;[root] aws_instance.test0</title>
<path fill="none" stroke="#000000" d="M1281.5893,-221.6284C1268.7944,-219.6708 1255.6503,-217.7253 1243.2405,-216 1111.9781,-197.7506 1078.0893,-201.0105 947.2405,-180 940.581,-178.9307 933.6633,-177.7229 926.7548,-176.4516"/>
<polygon fill="#000000" stroke="#000000" points="927.1457,-172.9638 916.6707,-174.5524 925.8501,-179.8429 927.1457,-172.9638"/>
</g>
<!-- [root] provider.aws (close)&#45;&gt;[root] aws_instance.test1 -->
<g id="edge19" class="edge">
<title>[root] provider.aws (close)&#45;&gt;[root] aws_instance.test1</title>
<path fill="none" stroke="#000000" d="M1291.6999,-220.0323C1232.0001,-207.5006 1144.7291,-189.1813 1084.2763,-176.4915"/>
<polygon fill="#000000" stroke="#000000" points="1084.9446,-173.0556 1074.4388,-174.4265 1083.5065,-179.9062 1084.9446,-173.0556"/>
</g>
<!-- [root] root -->
<g id="node13" class="node">
<title>[root] root</title>
<ellipse fill="none" stroke="#000000" cx="866.2405" cy="-378" rx="47.3916" ry="18"/>
<text text-anchor="middle" x="866.2405" y="-374.3" font-family="Times,serif" font-size="14.00" fill="#000000">[root] root</text>
</g>
<!-- [root] root&#45;&gt;[root] meta.count&#45;boundary (count boundary fixup) -->
<g id="edge20" class="edge">
<title>[root] root&#45;&gt;[root] meta.count&#45;boundary (count boundary fixup)</title>
<path fill="none" stroke="#000000" d="M842.3721,-362.3771C827.764,-352.8154 808.7871,-340.3941 792.365,-329.6452"/>
<polygon fill="#000000" stroke="#000000" points="793.8324,-326.4225 783.5485,-323.8744 789.9987,-332.2794 793.8324,-326.4225"/>
</g>
<!-- [root] root&#45;&gt;[root] provider.aws (close) -->
<g id="edge21" class="edge">
<title>[root] root&#45;&gt;[root] provider.aws (close)</title>
<path fill="none" stroke="#000000" d="M904.03,-366.9397C988.1717,-342.3128 1191.6869,-282.7474 1295.3258,-252.4141"/>
<polygon fill="#000000" stroke="#000000" points="1296.422,-255.7401 1305.0362,-249.572 1294.4557,-249.022 1296.422,-255.7401"/>
</g>
</g>
</svg>
